{
  "parent": "minecraft:recipes/root",
  "criteria": {
    "has_breath": {
      "conditions": {
        "items": [
          {
            "items": [
              "minecraft:dragon_breath"
            ]
          }
        ]
      },
      "trigger": "minecraft:inventory_changed"
    },
    "has_center": {
      "conditions": {
        "items": [
          {
            "items": [
              "rediscovered:ancient_crying_obsidian"
            ]
          }
        ]
      },
      "trigger": "minecraft:inventory_changed"
    },
    "has_the_recipe": {
      "conditions": {
        "recipe": "rediscovered:dragon_armor_inlay_smithing_template"
      },
      "trigger": "minecraft:recipe_unlocked"
    }
  },
  "requirements": [
    [
      "has_the_recipe",
      "has_center",
      "has_breath"
    ]
  ],
  "rewards": {
    "recipes": [
      "rediscovered:dragon_armor_inlay_smithing_template"
    ]
  }
}