{
    "parent": "block/block",
    "textures": {
        "gear": "rediscovered:block/rotational_converter_gear",
		"redstone": "rediscovered:block/rotational_converter_redstone_off",
        "side": "rediscovered:block/rotational_converter_side_gr_off",
        "particle": "#side"
    },
    "elements": [
        {   "from": [ 0, 0, 0 ],
            "to": [ 16, 16, 16 ],
            "faces": {
                "down":  { "uv": [ 0, 0, 16, 16 ], "texture": "#redstone", "cullface": "down" },
                "up":    { "uv": [ 0, 16, 16, 0 ], "texture": "#gear", "cullface": "up" },
                "north": { "uv": [ 0, 0, 16, 16 ], "texture": "#side", "cullface": "north" },
                "south": { "uv": [ 0, 0, 16, 16 ], "texture": "#side", "cullface": "south" },
                "west":  { "uv": [ 0, 0, 16, 16 ], "texture": "#side", "cullface": "west" },
                "east":  { "uv": [ 0, 0, 16, 16 ], "texture": "#side", "cullface": "east" }
            }
        }
    ]
}
