{
    "parent": "rediscovered:block/rotational_converter",
    "textures": {
        "side": "rediscovered:block/rotational_converter_side_rg_on",
		"redstone": "rediscovered:block/rotational_converter_redstone_on"
    }
}
