{
  "parent": "rediscovered:nether/cure_pigman",
  "criteria": {
    "cure": {
      "conditions": {
        "pigman": [
          {
            "condition": "minecraft:entity_properties",
            "entity": "this",
            "predicate": {
              "type": "rediscovered:ranged_pigman"
            }
          }
        ]
      },
      "trigger": "rediscovered:cure_pigman"
    }
  },
  "display": {
    "description": {
      "translate": "rediscovered:advancements.nether.cure_pigman_ranged.description"
    },
    "frame": "goal",
    "icon": {
      "item": "minecraft:bow",
      "nbt": "{Damage:0}"
    },
    "title": {
      "translate": "rediscovered:advancements.nether.cure_pigman_ranged.title"
    }
  },
  "requirements": [
    [
      "cure"
    ]
  ],
  "sends_telemetry_event": true
}