{
  "values": [
    "rediscovered:bright_green_wool",
    "rediscovered:rose_wool",
    "rediscovered:lavender_wool",
    "rediscovered:sky_blue_wool",
    "rediscovered:slate_blue_wool",
    "rediscovered:spring_green_wool"
  ]
}