{
  "elements": [
    {
      "element": {
        "element_type": "structure_gel:gel_single_pool_element",
        "location": "rediscovered:brick_pyramid/side_room_4",
        "maintainWater": false,
        "processors": "minecraft:empty",
        "projection": "rigid"
      },
      "weight": 1
    },
    {
      "element": {
        "element_type": "structure_gel:gel_single_pool_element",
        "location": "rediscovered:brick_pyramid/side_room_0",
        "maintainWater": false,
        "processors": "minecraft:empty",
        "projection": "rigid"
      },
      "weight": 1
    },
    {
      "element": {
        "element_type": "structure_gel:gel_single_pool_element",
        "location": "rediscovered:brick_pyramid/side_room_1",
        "maintainWater": false,
        "processors": "minecraft:empty",
        "projection": "rigid"
      },
      "weight": 1
    },
    {
      "element": {
        "element_type": "structure_gel:gel_single_pool_element",
        "location": "rediscovered:brick_pyramid/side_room_2",
        "maintainWater": false,
        "processors": "minecraft:empty",
        "projection": "rigid"
      },
      "weight": 1
    },
    {
      "element": {
        "element_type": "structure_gel:gel_single_pool_element",
        "location": "rediscovered:brick_pyramid/side_room_3",
        "maintainWater": false,
        "processors": "minecraft:empty",
        "projection": "rigid"
      },
      "weight": 1
    }
  ],
  "fallback": "minecraft:empty"
}