{
  "feature": "rediscovered:diamond_ore_burried",
  "placement": [
    {
      "type": "minecraft:count",
      "count": 2
    },
    {
      "type": "minecraft:in_square"
    },
    {
      "type": "minecraft:height_range",
      "height": {
        "type": "minecraft:trapezoid",
        "max_inclusive": {
          "absolute": 50
        },
        "min_inclusive": {
          "absolute": 6
        }
      }
    },
    {
      "type": "minecraft:biome"
    }
  ]
}