{
  "feature": "rediscovered:ruby_ore_small",
  "placement": [
    {
      "type": "minecraft:count",
      "count": 10
    },
    {
      "type": "minecraft:in_square"
    },
    {
      "type": "minecraft:height_range",
      "height": {
        "type": "minecraft:uniform",
        "max_inclusive": {
          "absolute": 200
        },
        "min_inclusive": {
          "absolute": 0
        }
      }
    },
    {
      "type": "minecraft:biome"
    }
  ]
}