{
  "parent": "rediscovered:skylands/root",
  "criteria": {
    "in_structure": {
      "conditions": {
        "player": [
          {
            "condition": "minecraft:entity_properties",
            "entity": "this",
            "predicate": {
              "location": {
                "structure": "rediscovered:brick_pyramid"
              }
            }
          }
        ]
      },
      "trigger": "minecraft:location"
    }
  },
  "display": {
    "description": {
      "translate": "rediscovered:advancements.skylands.enter_brick_pyramid.description"
    },
    "icon": {
      "item": "minecraft:bricks"
    },
    "title": {
      "translate": "rediscovered:advancements.skylands.enter_brick_pyramid.title"
    }
  },
  "requirements": [
    [
      "in_structure"
    ]
  ],
  "sends_telemetry_event": true
}