{
  "criteria": {
    "enter_skylands": {
      "conditions": {
        "to": "rediscovered:skylands"
      },
      "trigger": "minecraft:changed_dimension"
    }
  },
  "display": {
    "announce_to_chat": false,
    "background": "rediscovered:textures/gui/advancements/backgrounds/skylands.png",
    "description": {
      "translate": "rediscovered:advancements.skylands.root.description"
    },
    "icon": {
      "item": "rediscovered:ruby_eye",
      "nbt": "{texture_index:0b}"
    },
    "show_toast": false,
    "title": {
      "translate": "rediscovered:advancements.skylands.root.title"
    }
  },
  "requirements": [
    [
      "enter_skylands"
    ]
  ],
  "sends_telemetry_event": true
}