{
  "type": "minecraft:blasting",
  "category": "blocks",
  "cookingtime": 100,
  "experience": 0.01,
  "ingredient": {
    "item": "minecraft:mud_bricks"
  },
  "result": "rediscovered:brittle_mud_bricks"
}