{
  "type": "minecraft:crafting_shaped",
  "category": "misc",
  "group": "table",
  "key": {
    "#": {
      "item": "minecraft:cherry_planks"
    }
  },
  "pattern": [
    "###",
    "# #"
  ],
  "result": {
    "count": 4,
    "item": "rediscovered:cherry_table"
  }
}