{
  "type": "minecraft:smithing_trim",
  "addition": {
    "tag": "minecraft:trim_materials"
  },
  "base": {
    "tag": "minecraft:trimmable_armor"
  },
  "template": {
    "item": "rediscovered:draconic_armor_trim_smithing_template"
  }
}