{
  "type": "minecraft:smelting",
  "category": "misc",
  "cookingtime": 200,
  "experience": 1.0,
  "group": "ruby",
  "ingredient": {
    "item": "rediscovered:deepslate_ruby_ore"
  },
  "result": "rediscovered:ruby"
}