{
  "type": "minecraft:crafting_shaped",
  "category": "misc",
  "group": "carpet",
  "key": {
    "#": {
      "item": "rediscovered:sky_blue_wool"
    }
  },
  "pattern": [
    "##"
  ],
  "result": {
    "count": 3,
    "item": "rediscovered:sky_blue_carpet"
  }
}