{
  "values": [
    "rediscovered:oak_table",
    "rediscovered:spruce_table",
    "rediscovered:birch_table",
    "rediscovered:jungle_table",
    "rediscovered:acacia_table",
    "rediscovered:dark_oak_table",
    "rediscovered:mangrove_table",
    "rediscovered:cherry_table",
    "rediscovered:bamboo_table",
    "rediscovered:crimson_table",
    "rediscovered:warped_table"
  ]
}