{
  "type": "minecraft:block",
  "pools": [
    {
      "bonus_rolls": 0.0,
      "conditions": [
        {
          "condition": "minecraft:survives_explosion"
        }
      ],
      "entries": [
        {
          "type": "minecraft:item",
          "name": "rediscovered:acacia_table"
        }
      ],
      "rolls": 1.0
    }
  ],
  "random_sequence": "rediscovered:blocks/acacia_table"
}