{
  "type": "minecraft:block",
  "pools": [
    {
      "bonus_rolls": 0.0,
      "conditions": [
        {
          "condition": "minecraft:survives_explosion"
        },
        {
          "condition": "minecraft:inverted",
          "term": {
            "block": "rediscovered:gear",
            "condition": "minecraft:block_state_property",
            "properties": {
              "down_gear": "none"
            }
          }
        }
      ],
      "entries": [
        {
          "type": "minecraft:item",
          "name": "rediscovered:gear"
        }
      ],
      "rolls": 1.0
    },
    {
      "bonus_rolls": 0.0,
      "conditions": [
        {
          "condition": "minecraft:survives_explosion"
        },
        {
          "condition": "minecraft:inverted",
          "term": {
            "block": "rediscovered:gear",
            "condition": "minecraft:block_state_property",
            "properties": {
              "up_gear": "none"
            }
          }
        }
      ],
      "entries": [
        {
          "type": "minecraft:item",
          "name": "rediscovered:gear"
        }
      ],
      "rolls": 1.0
    },
    {
      "bonus_rolls": 0.0,
      "conditions": [
        {
          "condition": "minecraft:survives_explosion"
        },
        {
          "condition": "minecraft:inverted",
          "term": {
            "block": "rediscovered:gear",
            "condition": "minecraft:block_state_property",
            "properties": {
              "north_gear": "none"
            }
          }
        }
      ],
      "entries": [
        {
          "type": "minecraft:item",
          "name": "rediscovered:gear"
        }
      ],
      "rolls": 1.0
    },
    {
      "bonus_rolls": 0.0,
      "conditions": [
        {
          "condition": "minecraft:survives_explosion"
        },
        {
          "condition": "minecraft:inverted",
          "term": {
            "block": "rediscovered:gear",
            "condition": "minecraft:block_state_property",
            "properties": {
              "south_gear": "none"
            }
          }
        }
      ],
      "entries": [
        {
          "type": "minecraft:item",
          "name": "rediscovered:gear"
        }
      ],
      "rolls": 1.0
    },
    {
      "bonus_rolls": 0.0,
      "conditions": [
        {
          "condition": "minecraft:survives_explosion"
        },
        {
          "condition": "minecraft:inverted",
          "term": {
            "block": "rediscovered:gear",
            "condition": "minecraft:block_state_property",
            "properties": {
              "west_gear": "none"
            }
          }
        }
      ],
      "entries": [
        {
          "type": "minecraft:item",
          "name": "rediscovered:gear"
        }
      ],
      "rolls": 1.0
    },
    {
      "bonus_rolls": 0.0,
      "conditions": [
        {
          "condition": "minecraft:survives_explosion"
        },
        {
          "condition": "minecraft:inverted",
          "term": {
            "block": "rediscovered:gear",
            "condition": "minecraft:block_state_property",
            "properties": {
              "east_gear": "none"
            }
          }
        }
      ],
      "entries": [
        {
          "type": "minecraft:item",
          "name": "rediscovered:gear"
        }
      ],
      "rolls": 1.0
    }
  ],
  "random_sequence": "rediscovered:blocks/gear"
}