{
  "type": "minecraft:chest",
  "pools": [
    {
      "bonus_rolls": 0.0,
      "entries": [
        {
          "type": "minecraft:item",
          "functions": [
            {
              "add": false,
              "count": {
                "type": "minecraft:uniform",
                "max": 2.0,
                "min": 1.0
              },
              "function": "minecraft:set_count"
            }
          ],
          "name": "rediscovered:raw_fish",
          "weight": 12
        },
        {
          "type": "minecraft:item",
          "functions": [
            {
              "add": false,
              "count": {
                "type": "minecraft:uniform",
                "max": 2.0,
                "min": 1.0
              },
              "function": "minecraft:set_count"
            }
          ],
          "name": "rediscovered:cooked_fish",
          "weight": 20
        },
        {
          "type": "minecraft:item",
          "functions": [
            {
              "add": false,
              "count": {
                "type": "minecraft:uniform",
                "max": 2.0,
                "min": 1.0
              },
              "function": "minecraft:set_count"
            }
          ],
          "name": "minecraft:string",
          "weight": 9
        },
        {
          "type": "minecraft:item",
          "name": "minecraft:bucket",
          "weight": 4
        },
        {
          "type": "minecraft:item",
          "name": "rediscovered:ruby"
        }
      ],
      "rolls": {
        "type": "minecraft:uniform",
        "max": 7.0,
        "min": 5.0
      }
    }
  ],
  "random_sequence": "rediscovered:chests/pigman_village/fish_stall"
}