{
  "elements": [
    {
      "element": {
        "element_type": "structure_gel:gel_single_pool_element",
        "location": "rediscovered:pigman_village/prison/bridge_1",
        "maintainWater": false,
        "processors": "minecraft:empty",
        "projection": "rigid"
      },
      "weight": 1
    }
  ],
  "fallback": "minecraft:empty"
}