{
  "parent": "minecraft:item/generated",
  "textures": {
    "layer0": "rediscovered:item/dragon_armor_chain",
    "layer1": "rediscovered:item/dragon_armor_plating",
    "layer2": "rediscovered:item/dragon_armor_inlay"
  }
}