{
  "parent": "minecraft:item/generated",
  "overrides": [
    {
      "model": "rediscovered:item/studded_leggings_quartz_trim",
      "predicate": {
        "minecraft:trim_type": 0.1
      }
    },
    {
      "model": "rediscovered:item/studded_leggings_iron_trim",
      "predicate": {
        "minecraft:trim_type": 0.2
      }
    },
    {
      "model": "rediscovered:item/studded_leggings_netherite_trim",
      "predicate": {
        "minecraft:trim_type": 0.3
      }
    },
    {
      "model": "rediscovered:item/studded_leggings_redstone_trim",
      "predicate": {
        "minecraft:trim_type": 0.4
      }
    },
    {
      "model": "rediscovered:item/studded_leggings_rediscovered-ruby_trim",
      "predicate": {
        "minecraft:trim_type": 0.400173
      }
    },
    {
      "model": "rediscovered:item/studded_leggings_copper_trim",
      "predicate": {
        "minecraft:trim_type": 0.5
      }
    },
    {
      "model": "rediscovered:item/studded_leggings_gold_trim",
      "predicate": {
        "minecraft:trim_type": 0.6
      }
    },
    {
      "model": "rediscovered:item/studded_leggings_emerald_trim",
      "predicate": {
        "minecraft:trim_type": 0.7
      }
    },
    {
      "model": "rediscovered:item/studded_leggings_diamond_trim",
      "predicate": {
        "minecraft:trim_type": 0.8
      }
    },
    {
      "model": "rediscovered:item/studded_leggings_lapis_trim",
      "predicate": {
        "minecraft:trim_type": 0.9
      }
    },
    {
      "model": "rediscovered:item/studded_leggings_amethyst_trim",
      "predicate": {
        "minecraft:trim_type": 1.0
      }
    }
  ],
  "textures": {
    "layer0": "rediscovered:item/studded_leggings",
    "layer1": "rediscovered:item/studded_leggings_overlay"
  }
}