{
  "parent": "minecraft:item/generated",
  "textures": {
    "layer0": "rediscovered:item/studded_boots",
    "layer1": "rediscovered:item/studded_boots_overlay",
    "layer2": "minecraft:trims/items/boots_trim_iron"
  }
}