{
  "parent": "minecraft:item/generated",
  "textures": {
    "layer0": "rediscovered:item/studded_leggings",
    "layer1": "rediscovered:item/studded_leggings_overlay",
    "layer2": "minecraft:trims/items/leggings_trim_lapis"
  }
}