{
  "multipart": [
    {
      "apply": {
        "model": "rediscovered:block/mangrove_chair"
      },
      "when": {
        "facing": "north"
      }
    },
    {
      "apply": {
        "model": "rediscovered:block/mangrove_chair",
        "y": 180
      },
      "when": {
        "facing": "south"
      }
    },
    {
      "apply": {
        "model": "rediscovered:block/mangrove_chair",
        "y": 270
      },
      "when": {
        "facing": "west"
      }
    },
    {
      "apply": {
        "model": "rediscovered:block/mangrove_chair",
        "y": 90
      },
      "when": {
        "facing": "east"
      }
    }
  ]
}