{
  "type": "minecraft:chest",
  "pools": [
    {
      "bonus_rolls": 0.0,
      "entries": [
        {
          "type": "minecraft:item",
          "functions": [
            {
              "add": false,
              "count": {
                "type": "minecraft:uniform",
                "max": 9.0,
                "min": 4.0
              },
              "function": "minecraft:set_count"
            }
          ],
          "name": "rediscovered:purple_arrow"
        }
      ],
      "rolls": 1.0
    }
  ],
  "random_sequence": "rediscovered:chests/purple_arrow_dispenser"
}