{
  "parent": "minecraft:block/inner_stairs",
  "textures": {
    "bottom": "rediscovered:block/large_bricks",
    "side": "rediscovered:block/large_bricks",
    "top": "rediscovered:block/large_bricks"
  }
}