{
  "parent": "minecraft:adventure/root",
  "criteria": {
    "quiver": {
      "conditions": {
        "items": [
          {
            "items": [
              "rediscovered:quiver"
            ]
          }
        ]
      },
      "trigger": "minecraft:inventory_changed"
    }
  },
  "display": {
    "description": {
      "translate": "rediscovered:advancements.adventure.craft_quiver.description"
    },
    "icon": {
      "item": "rediscovered:quiver"
    },
    "title": {
      "translate": "rediscovered:advancements.adventure.craft_quiver.title"
    }
  },
  "requirements": [
    [
      "quiver"
    ]
  ],
  "sends_telemetry_event": true
}