{
	"textures": [
		"rediscovered:nether_reactor_growth_0",
		"rediscovered:nether_reactor_growth_1",
		"rediscovered:nether_reactor_growth_2",
		"rediscovered:nether_reactor_growth_3",
		"rediscovered:nether_reactor_growth_4",
		"rediscovered:nether_reactor_growth_5"
	]
}